Web scraping with R • qtalrkit
…
This gets the text for a single paper within a single div tag. We can wrap this in a function and apply it to each div tag.

Now we can see what the text looks like for the first paper.

## # A tibble: 163 × 4
##    number           title                author                     text        
##    <chr>            <chr>                <chr>                      <chr>       
##  1 Federalist No. 1 General Introduction Author: Alexander Hamilton To the Peop…
##  2 Federalist No. 1 General Introduction Author: Alexander Hamilton AFTER an un…
##  3 Federalist No. 1 General Introduction Author: Alexander Hamilton This idea w…
##  4 Federalist No. 1 General Introduction Author: Alexander Hamilton Among the m…
##  5 Federalist No. 1 General Introduction Author: Alexander Hamilton It is not, …
##  6 Federalist No. 1 General Introduction Author: Alexander Hamilton And yet, ho…
##  7 Federalist No. 1 General Introduction Author: Alexander Hamilton In the cour…
##  8 Federalist No. 1 General Introduction Author: Alexander Hamilton I propose, …
##  9 Federalist No. 1 General Introduction Author: Alexander Hamilton THE UTILITY…
## 10 Federalist No. 1 General Introduction Author: Alexander Hamilton In the prog…
## # ℹ 153 more rows
…
