3. Descriptive assessment of datasets • qtalrkit
…
The result is a 2x3 data frame which includes both the mean and median of the percent_passive variable for each of the two levels of the lang_variety variable.

The group_by() function can also be used to group by multiple variables. For example, let's calculate the mean and median of the percent_passive variable in the brown_fam_df dataset grouped by the lang_variety and genre variables.

# Mean and median of `percent_passive` grouped by `lang_variety` and `genre`
brown_fam_df |>
  group_by(lang_variety, genre) |>
  summarize(
    mean_percent_passive = mean(percent_passive),
    median_percent_passive = median(percent_passive)
  )

## # A tibble: 30 × 4
##    lang_variety genre            mean_percent_passive median_percent_passive
##    <fct>        <fct>                           <dbl>                  <dbl>
##  1 AmE          press reportage                 11.5                   11.0 
##  2 AmE          press editorial                 10.6                   10.1 
##  3 AmE          press reviews                    9.54                   9.77
##  4 AmE          religion                        14.3                   14.3 
##  5 AmE          skills / hobbies                14.9                   13.9 
##  6 AmE          popular lore                    14.0                   12.7 
##  7 AmE          belles lettres                  12.0                   11.7 
##  8 AmE          miscellaneous                   23.5                   23.3 
##  9 AmE          learned                         21.3                   18.3 
## 10 AmE          general fiction                  6.22                   5.89
## # ℹ 20 more rows

For numeric variables, such as percent_passive, there are a number of summary statistics that we can calculate. We've seen the R functions for mean and median but we can also calculate the standard deviation (sd()), variance (var()), minimum (min()), maximum (max()), interquartile range (IQR()), median absolute deviation (mad()), and quantiles (quantile()). All these calculations make sense for numeric variables but not for character variables.

For character variables, and factors, the summary statistics are more limited. We can calculate the number of observations (n()) and/ or the number of unique values (n_distinct()). Let's now summarize the number of observations n() grouped by the genre variable in the brown_fam_df dataset.

# Frequency table for `genre`
brown_fam_df |>
  group_by(genre) |>
  summarize(
    n = n(),
  )

## # A tibble: 15 × 2
##    genre                n
##    <fct>            <int>
##  1 press reportage    220
##  2 press editorial    135
##  3 press reviews       85
##  4 religion            85
##  5 skills / hobbies   186
##  6 popular lore       228
##  7 belles lettres     381
##  8 miscellaneous      150
##  9 learned            400
## 10 general fiction    145
## # ℹ 5 more rows

Just as before, we can add multiple grouping variables to group_by(). Let's add lang_variety to the grouping and calculate the number of observations n() grouped by the genre and lang_variety variables in the brown_fam_df dataset.

# Cross-tabulation for `genre` and `lang_variety`
brown_fam_df |>
  group_by(genre, lang_variety) |>
  summarize(
    n = n(),
  )

## # A tibble: 30 × 3
##    genre            lang_variety     n
##    <fct>            <fct>        <int>
##  1 press reportage  AmE             88
##  2 press reportage  BrE            132
##  3 press editorial  AmE             54
##  4 press editorial  BrE             81
##  5 press reviews    AmE             34
##  6 press reviews    BrE             51
##  7 religion         AmE             34
##  8 religion         BrE             51
##  9 skills / hobbies AmE             72
## 10 skills / hobbies BrE            114
## # ℹ 20 more rows
…
If we do not use the ungroup() function, the mean and median will be calculated for each genre collapsed across lang_variety.

# Mean and median of `n` grouped by `genre`
brown_fam_df |>
  group_by(genre, lang_variety) |>
  summarize(
    n = n(),
  ) |>
  summarize(
    mean_n = mean(n),
    median_n = median(n)
  )

## # A tibble: 15 × 3
##    genre            mean_n median_n
##    <fct>             <dbl>    <dbl>
##  1 press reportage   110      110  
##  2 press editorial    67.5     67.5
##  3 press reviews      42.5     42.5
##  4 religion           42.5     42.5
##  5 skills / hobbies   93       93  
##  6 popular lore      114      114  
##  7 belles lettres    190.     190. 
##  8 miscellaneous      75       75  
##  9 learned           200      200  
## 10 general fiction    72.5     72.5
## # ℹ 5 more rows
…
Now we see that we have a mean and median calculated across all genres.

Before we leave this section, let's look some other ways to create frequency and contingency tables for character and factor variables. A shortcut to calculate a frequency table for a character or factor variable is to use the count() function from the dplyr package.

Let's calculate the number of observations grouped by the genre variable in the brown_fam_df dataset.

# Frequency table for `genre`
brown_fam_df |>
  count(genre)

## # A tibble: 15 × 2
##    genre                n
##    <fct>            <int>
##  1 press reportage    220
##  2 press editorial    135
##  3 press reviews       85
##  4 religion            85
##  5 skills / hobbies   186
##  6 popular lore       228
##  7 belles lettres     381
##  8 miscellaneous      150
##  9 learned            400
## 10 general fiction    145
## # ℹ 5 more rows

We can also add multiple grouping variables to count() and create contingency tables.

Let's add lang_variety to the grouping and create a cross-tabulation for genre and lang_variety variables in the brown_fam_df dataset.

# Cross-tabulation for `genre` and `lang_variety`
brown_fam_df |>
  count(genre, lang_variety)

## # A tibble: 30 × 3
##    genre            lang_variety     n
##    <fct>            <fct>        <int>
##  1 press reportage  AmE             88
##  2 press reportage  BrE            132
##  3 press editorial  AmE             54
##  4 press editorial  BrE             81
##  5 press reviews    AmE             34
##  6 press reviews    BrE             51
##  7 religion         AmE             34
##  8 religion         BrE             51
##  9 skills / hobbies AmE             72
## 10 skills / hobbies BrE            114
## # ℹ 20 more rows

Note that the results of count() are not grouped so we do not need to use the ungroup() function before calculating subsequent summary statistics.

Another way to create frequency and contingency tables is to use the tabyl() function from the janitor package (Firke 2023). Let's create a frequency table for the genre variable in the brown_fam_df dataset.

# Frequency table for `genre`

# Load packages
library(janitor)

brown_fam_df |>
  tabyl(genre)

## # A tibble: 15 × 3
##    genre                n percent
##    <fct>            <int>   <dbl>
##  1 press reportage    220  0.0880
##  2 press editorial    135  0.0540
##  3 press reviews       85  0.0340
##  4 religion            85  0.0340
##  5 skills / hobbies   186  0.0744
##  6 popular lore       228  0.0912
##  7 belles lettres     381  0.152 
##  8 miscellaneous      150  0.0600
##  9 learned            400  0.160 
## 10 general fiction    145  0.0580
## # ℹ 5 more rows

In addition to providing frequency counts, the tabyl() function also provides the percent of observations for each level of the variable. And, we can add up to three grouping variables to tabyl() as well.

Let's add lang_variety to the grouping and create a contingency table for the genre and lang_variety variables in the brown_fam_df dataset.

# Cross-tabulation for `genre` and `lang_variety`
brown_fam_df |>
  tabyl(genre, lang_variety)

## # A tibble: 15 × 3
##    genre              AmE   BrE
##    <fct>            <dbl> <dbl>
##  1 press reportage     88   132
##  2 press editorial     54    81
##  3 press reviews       34    51
##  4 religion            34    51
##  5 skills / hobbies    72   114
##  6 popular lore        96   132
##  7 belles lettres     150   231
##  8 miscellaneous       60    90
##  9 learned            160   240
## 10 general fiction     58    87
## # ℹ 5 more rows
…
So, let's return to adding percentages to our results from the genre and lang_variety cross-tabulation. Let's calculate the by-column percentages of observations which will give ue the percent of observations for each level of the genre variable in each level of the lang_varity variable. In other words, we are aiming to assess to what degree the distribution of genre is similar or different across lang_variety.

# Cross-tabulation for `genre` and `lang_variety`
brown_genre_lang_ct <-
  brown_fam_df |>
  tabyl(genre, lang_variety) |> # genre x lang_variety
  adorn_percentages("col") |> # by-column percentages
  adorn_pct_formatting() |> # format percentages
  adorn_ns("front") # add frequency (in front)

# View
brown_genre_lang_ct

## # A tibble: 15 × 3
##    genre            AmE         BrE        
##    <fct>            <chr>       <chr>      
##  1 press reportage  88  (8.8%)  132  (8.8%)
##  2 press editorial  54  (5.4%)  81  (5.4%) 
##  3 press reviews    34  (3.4%)  51  (3.4%) 
##  4 religion         34  (3.4%)  51  (3.4%) 
##  5 skills / hobbies 72  (7.2%)  114  (7.6%)
##  6 popular lore     96  (9.6%)  132  (8.8%)
##  7 belles lettres   150 (15.0%) 231 (15.4%)
##  8 miscellaneous    60  (6.0%)  90  (6.0%) 
##  9 learned          160 (16.0%) 240 (16.0%)
## 10 general fiction  58  (5.8%)  87  (5.8%) 
## # ℹ 5 more rows
…
