8. Employing exploratory methods • qtalrkit
…
Concepts and strategies

Orientation

We will use the SOTU corpus to demonstrate the different methods. We will select a subset of the corpus (post-1945) and explore the question:

How has the language of the SOTU changed over time?

This will include methods such as frequency and distributional analysis, dimensionality reduction, and word embedding models.

Let's look at the first few rows of the data to get a sense of what we have.

sotu_df

# # A tibble: 73 × 4
#    president   year party      address                                          
#    <chr>      <dbl> <chr>      <chr>                                            
#  1 Truman      1947 Democratic "Mr. President, Mr. Speaker, Members of the Cong…
#  2 Truman      1948 Democratic "Mr. President, Mr. Speaker, and Members of the …
#  3 Truman      1949 Democratic "Mr. President, Mr. Speaker, Members of the Cong…
#  4 Truman      1950 Democratic "Mr. President, Mr. Speaker, Members of the Cong…
#  5 Truman      1951 Democratic "Mr. President, Mr. Speaker, Members of the Cong…
#  6 Truman      1952 Democratic "Mr. President, Mr. Speaker, Members of the Cong…
#  7 Eisenhower  1953 Republican "Mr. President, Mr. Speaker, Members of the Eigh…
#  8 Eisenhower  1954 Republican "Mr. President, Mr. Speaker, Members of the Eigh…
#  9 Eisenhower  1955 Republican "Mr. President, Mr. Speaker, Members of the Cong…
# 10 Eisenhower  1956 Republican "My Fellow Citizens: This morning I sent to the …
# # ℹ 63 more rows
…
In order to do this, we will need to calculate the \(tf\)-\(idf\) for each word in each time period. To keep things simple, we will calculate the \(tf\)-\(idf\) for each word in each decade. We will do this by creating a new variable called decade that is the year rounded down to the nearest decade. Then we can group by this decade variable and then count the number of times each word occurs. We will then calculate the \(tf\)-\(idf\) for each word in each decade using the bind_tf_idf() function from the tidytext package. We will then arrange the data in descending order by the \(tf\)-\(idf\) value.

# Get the tf-idf of words by decade ------------------------------

sotu_words_tfidf_df <-
  sotu_words_df |>
  mutate(decade = floor(year / 10) * 10) |>
  count(decade, word) |>
  bind_tf_idf(word, decade, n) |>
  arrange(decade, desc(tf_idf))

# Preview
sotu_words_tfidf_df

## # A tibble: 40,073 × 6
##    decade word               n       tf   idf   tf_idf
##     <dbl> <chr>          <int>    <dbl> <dbl>    <dbl>
##  1   1940 boycotts           5 0.000344 2.20  0.000756
##  2   1940 jurisdictional     7 0.000482 1.50  0.000725
##  3   1940 interpretation     4 0.000275 2.20  0.000605
##  4   1940 unjustified        4 0.000275 2.20  0.000605
##  5   1940 insecurity         5 0.000344 1.50  0.000518
##  6   1940 arbitration        3 0.000207 2.20  0.000454
##  7   1940 output             6 0.000413 1.10  0.000454
##  8   1940 unjustifiable      3 0.000207 2.20  0.000454
##  9   1940 management        25 0.00172  0.251 0.000433
## 10   1940 rental             4 0.000275 1.50  0.000414
## # ℹ 40,063 more rows
…
With these considerations in mind, let's update our sotu_df dataset to remove the 1940s and 2020s, tokenize and lemmatize the words, and add a decade variable.

# Update the dataset ----------------------------------------------
sotu_terms_df <-
  sotu_df |>
  filter(year >= 1950 & year < 2020) |> # Remove the 1940s and 2020s
  unnest_tokens(word, address, strip_numeric = TRUE) |> # Tokenize the words
  mutate(lemma = textstem::lemmatize_words(word)) |> # Lemmatize the words
  mutate(decade = floor(year / 10) * 10) |> # Add a decade variable
  select(president, decade, year, party, word, lemma) #

# Preview
sotu_terms_df

## # A tibble: 368,586 × 6
##    president decade  year party      word      lemma    
##    <chr>      <dbl> <dbl> <chr>      <chr>     <chr>    
##  1 Truman      1950  1950 Democratic mr        mr       
##  2 Truman      1950  1950 Democratic president president
##  3 Truman      1950  1950 Democratic mr        mr       
##  4 Truman      1950  1950 Democratic speaker   speaker  
##  5 Truman      1950  1950 Democratic members   member   
##  6 Truman      1950  1950 Democratic of        of       
##  7 Truman      1950  1950 Democratic the       the      
##  8 Truman      1950  1950 Democratic congress  congress 
##  9 Truman      1950  1950 Democratic a         a        
## 10 Truman      1950  1950 Democratic year      year     
## # ℹ 368,576 more rows
…
We have already made some progress on this question in the inspection phase, but now we can do it again with the updated dataset.

# Get the most frequent lemmas by decade --------------------------

sotu_lemmas_tfidf_df <-
  sotu_terms_df |>
  count(decade, lemma) |> # Count the lemmas by decade
  bind_tf_idf(lemma, decade, n) |> # Calculate the tf-idf
  arrange(decade, desc(tf_idf))

# Preview
sotu_lemmas_tfidf_df

## # A tibble: 26,435 × 6
##    decade lemma            n       tf   idf   tf_idf
##     <dbl> <chr>        <int>    <dbl> <dbl>    <dbl>
##  1   1950 armament        16 0.000321 1.95  0.000625
##  2   1950 imperialism      9 0.000181 1.95  0.000351
##  3   1950 shall          107 0.00215  0.154 0.000331
##  4   1950 disarmament     13 0.000261 1.25  0.000327
##  5   1950 mineral          8 0.000160 1.95  0.000312
##  6   1950 mobilization    12 0.000241 1.25  0.000302
##  7   1950 survivor        12 0.000241 1.25  0.000302
##  8   1950 expenditure     42 0.000842 0.336 0.000283
##  9   1950 adequate        25 0.000501 0.560 0.000281
## 10   1950 constantly      11 0.000221 1.25  0.000276
## # ℹ 26,425 more rows
…
Distribution

How does the distribution of words change across time periods?

OK. Now let's focus on word frequency distributions over time. We will return to the sotu_terms_df.

sotu_terms_df

## # A tibble: 368,586 × 6
##    president decade  year party      word      lemma    
##    <chr>      <dbl> <dbl> <chr>      <chr>     <chr>    
##  1 Truman      1950  1950 Democratic mr        mr       
##  2 Truman      1950  1950 Democratic president president
##  3 Truman      1950  1950 Democratic mr        mr       
##  4 Truman      1950  1950 Democratic speaker   speaker  
##  5 Truman      1950  1950 Democratic members   member   
##  6 Truman      1950  1950 Democratic of        of       
##  7 Truman      1950  1950 Democratic the       the      
##  8 Truman      1950  1950 Democratic congress  congress 
##  9 Truman      1950  1950 Democratic a         a        
## 10 Truman      1950  1950 Democratic year      year     
## # ℹ 368,576 more rows
We want to get a sense of how the word distributions change over time. We need to calculate the frequency of words for each year, first off. So we need to go back to the sotu_terms_df dataset and group by year and word and then count the number of times each word occurs.

Since we will lose the lemma variable in this process, we will add it back after the \(tf\)-\(idf\) transformation by using the mutate() function and the textstem::lemmatize_words() function.

sotu_terms_tfidf_df <-
  sotu_terms_df |>
  count(year, word) |> # Count the words by year
  bind_tf_idf(word, year, n) |> # Calculate the tf-idf
  mutate(lemma = textstem::lemmatize_words(word)) |> # Lemmatize the words
  arrange(year, desc(tf_idf))

# Preview
sotu_terms_tfidf_df

## # A tibble: 97,213 × 7
##     year word               n       tf   idf  tf_idf lemma         
##    <dbl> <chr>          <int>    <dbl> <dbl>   <dbl> <chr>         
##  1  1950 enjoyment          3 0.000585 3.54  0.00207 enjoyment     
##  2  1950 rent               3 0.000585 2.85  0.00167 rend          
##  3  1950 widespread         3 0.000585 2.85  0.00167 widespread    
##  4  1950 underdeveloped     2 0.000390 4.23  0.00165 underdeveloped
##  5  1950 ideals             7 0.00136  1.14  0.00156 ideal         
##  6  1950 transmit           3 0.000585 2.62  0.00153 transmit      
##  7  1950 peoples            8 0.00156  0.976 0.00152 people        
##  8  1950 democratic        12 0.00234  0.623 0.00146 democratic    
##  9  1950 expenditures       7 0.00136  1.06  0.00144 expenditure   
## 10  1950 businessmen        3 0.000585 2.44  0.00143 businessman   
## # ℹ 97,203 more rows
…
