9. Building predictive models • qtalrkit
…
Note that loading the tidymodels package will load 22 other packages commonly used in modeling workflows. You can see the list of packages by running tidymodels::tidyverse_packages().

In Lab 9, we will apply the tidymodels framework to build and explore a predictive model based on another dataset.

Concepts and strategies

Orientation

We will use the ACTIV-ES corpus to build a predictive model that can classify text as one of three dialects of Spanish: Argentinian, Mexican, or Spanish. We will frame this as a supervised learning problem, where we have a set of texts that have been labeled with the dialect of Spanish that they are written in. In contrast to the classification task in the chapter, which was binary, this is a multiclass classification task, where we are trying to classify each document as one of three classes.

Let's preview the structure of the ACTIVES dataset.

aes_df

# # A tibble: 430 × 3
#    doc_id variety   text                                                        
#     <dbl> <fct>     <chr>                                                       
#  1 199500 Argentina No está , señora . Aquí tampoco . No aparece , señora . ¿ D…
#  2 184782 Argentina ALGUIEN AL TELÉFONO . LA ANGUSTIA . Ah , no , no , no mi hi…
#  3  47823 Argentina Habrá que cumplir su última voluntad , ¿ el medallón ? Lo v…
#  4 282622 Argentina Sucedió en Hualfin Esta es la historia de tres generaciones…
#  5  62433 Argentina 10 secuestros en 10 días ! Y no hay el menor índice . Bueno…
#  6  70250 Argentina Y preguntada que fue sí reconocen el cadáver exhumado ... y…
#  7  71897 Argentina ¡ Jeremías ! ¡ Jeremías ! ¡ No dejés parir a tu mujer ! Sei…
#  8 333883 Argentina Usted . Usted que frecuenta el éxito como una costumbre más…
#  9 333954 Argentina Miles de campanas nos traen , a través de los siglos , el t…
# 10 175243 Argentina Y ? Enseguida viene , fue al baño . Bueno , pero la mesa la…
# # ℹ 420 more rows
…
Now we set up the range of values for both the max_tokens and penalty hyperparameters. The grid_regular() function from the dials package will allow us to specify a grid of values for each hyperparameter.

# Set the hyperparameter grid
aes_grid <-
  grid_regular(
    max_tokens(range = c(250, 2000)),
    penalty(range = c(-3, -1)),
    levels = c(max_tokens = 5, penalty = 10)
  )

aes_grid

## # A tibble: 50 × 2
##    max_tokens penalty
##         <int>   <dbl>
##  1        250 0.001  
##  2        687 0.001  
##  3       1125 0.001  
##  4       1562 0.001  
##  5       2000 0.001  
##  6        250 0.00167
##  7        687 0.00167
##  8       1125 0.00167
##  9       1562 0.00167
## 10       2000 0.00167
## # ℹ 40 more rows
…
