2. Reading, inspecting, and writing data • qtalrkit
…
## Rows: 15
## Columns: 5
## $ cat     <chr> "A", "B", "C", "D", "E", "F", "G", "H", "J", "K", "L", "M", "N…
## $ passive <dbl> 892, 543, 283, 351, 853, 1034, 1460, 837, 2423, 352, 265, 104,…
## $ n_w     <dbl> 101196, 61535, 40749, 39029, 82010, 110363, 173017, 69446, 181…
## $ n_s     <dbl> 3684, 2399, 1459, 1372, 3286, 4387, 6537, 2012, 6311, 3983, 36…
## $ name    <chr> "press reportage", "press editorial", "press reviews", "religi…

If we want a more, tabular-like view of the data, we can simply print the data frame to the console. It's worth mentioning, that all readr functions return tibbles, so we gain the benefits of tibbles when we read data into R with readr functions, one of which is that we do not have to worry that printing a data frame to the console, or our document, will print all of the data.

# Print the data frame
brown_passives_df

## # A tibble: 15 × 5
##    cat   passive    n_w   n_s name            
##    <chr>   <dbl>  <dbl> <dbl> <chr>           
##  1 A         892 101196  3684 press reportage 
##  2 B         543  61535  2399 press editorial 
##  3 C         283  40749  1459 press reviews   
##  4 D         351  39029  1372 religion        
##  5 E         853  82010  3286 skills / hobbies
##  6 F        1034 110363  4387 popular lore    
##  7 G        1460 173017  6537 belles lettres  
##  8 H         837  69446  2012 miscellaneous   
##  9 J        2423 181426  6311 learned         
## 10 K         352  68599  3983 general fiction 
## # ℹ 5 more rows
…
This is a good practice to follow when writing code. It makes the code more readable and easier to understand for others and for your future self!

Subsetting data with dplyr

Now that we have a sense of the data, we can subset the data to create a variations of our original data frame. We can subset the data frame by selecting columns and/ or rows.

In the R lesson "Packages and Functions", we saw that base R provides the bracket ([]) operator to subset data frames. The dplyr package provides functions to subset data frames which can be more readable and easier to use.

Let's first look a selecting columns. The select() function allows us to select columns by name. For example, the following code block will select the passive and n_w columns from the data frame:

# Select the `passive` and `n_w` columns
select(brown_passives_df, passive, n_w)

## # A tibble: 15 × 2
##    passive    n_w
##      <dbl>  <dbl>
##  1     892 101196
##  2     543  61535
##  3     283  40749
##  4     351  39029
##  5     853  82010
##  6    1034 110363
##  7    1460 173017
##  8     837  69446
##  9    2423 181426
## 10     352  68599
## # ℹ 5 more rows

Beyond selecting columns, we can also reorder columns and rename columns. For example, the following code block will select the passive and n_w columns, rename the n_w column to num_words, and reorder the columns so that num_words is the first column:

# Select rename and reorder columns
brown_passives_df |>
  select(num_words = n_w, passive)

## # A tibble: 15 × 2
##    num_words passive
##        <dbl>   <dbl>
##  1    101196     892
##  2     61535     543
##  3     40749     283
##  4     39029     351
##  5     82010     853
##  6    110363    1034
##  7    173017    1460
##  8     69446     837
##  9    181426    2423
## 10     68599     352
## # ℹ 5 more rows

 Dive deeper

select() also provides a number of helper functions to select columns. For example, we can use the starts_with() function inside the select() call to select columns that start with a certain string. Or we can select columns by their vector type by using where(is.character).

For more information, see the select() documentation or use the ?select command in the R console.

By selecting some columns and not others, we have effectively dropped the columns we did not select. If it is more effective to drop columns by name, we can use the select() function with the - operator. For example, the following code block will drop the cat column from the data frame:

# Drop the `n_w` column
brown_passives_df |>
  select(-cat)

## # A tibble: 15 × 4
##    passive    n_w   n_s name            
##      <dbl>  <dbl> <dbl> <chr>           
##  1     892 101196  3684 press reportage 
##  2     543  61535  2399 press editorial 
##  3     283  40749  1459 press reviews   
##  4     351  39029  1372 religion        
##  5     853  82010  3286 skills / hobbies
##  6    1034 110363  4387 popular lore    
##  7    1460 173017  6537 belles lettres  
##  8     837  69446  2012 miscellaneous   
##  9    2423 181426  6311 learned         
## 10     352  68599  3983 general fiction 
## # ℹ 5 more rows

Let's now turn our attention to subsetting rows. The filter() function allows us to select rows by a logical condition. For example, the following code block will select rows where the values of the passive column are less than < 1,000:

# Select rows where `passive` is less than 1,000
brown_passives_df |>
  filter(passive < 1000)

## # A tibble: 12 × 5
##    cat   passive    n_w   n_s name            
##    <chr>   <dbl>  <dbl> <dbl> <chr>           
##  1 A         892 101196  3684 press reportage 
##  2 B         543  61535  2399 press editorial 
##  3 C         283  40749  1459 press reviews   
##  4 D         351  39029  1372 religion        
##  5 E         853  82010  3286 skills / hobbies
##  6 H         837  69446  2012 miscellaneous   
##  7 K         352  68599  3983 general fiction 
##  8 L         265  57624  3673 detective       
##  9 M         104  14433   873 science fiction 
## 10 N         290  69909  4438 adventure       
## # ℹ 2 more rows
…
