7. Transforming and documenting data • qtalrkit
…
# Drop and rename variables
masc_df <-
  masc_curated |>
  select(
    doc_id = file,
    term_num = ref,
    term = string,
    lemma = base,
    pos = msd,
    mod_gen = class
  )

masc_df

## # A tibble: 591,097 × 6
##    doc_id    term_num term         lemma        pos   mod_gen
##    <chr>        <dbl> <chr>        <chr>        <chr> <chr>  
##  1 110CYL067        0 December     december     NNP   WR LT  
##  2 110CYL067        1 1998         1998         CD    WR LT  
##  3 110CYL067        2 Your         your         PRP$  WR LT  
##  4 110CYL067        3 contribution contribution NN    WR LT  
##  5 110CYL067        4 to           to           TO    WR LT  
##  6 110CYL067        5 Goodwill     goodwill     NNP   WR LT  
##  7 110CYL067        6 will         will         MD    WR LT  
##  8 110CYL067        7 mean         mean         VB    WR LT  
##  9 110CYL067        8 more         more         JJR   WR LT  
## 10 110CYL067        9 than         than         IN    WR LT  
## # ℹ 591,087 more rows
…
Looks good, our values are separated by a space. We can use the separate_wider_delim() function from the tidyr package to split the variable into two variables. We will use the delim argument to specify the delimiter and the names argument to specify the names of the new variables.

# Split mod_gen into modality and genre
masc_df <-
  masc_df |>
  separate_wider_delim(
    cols = mod_gen,
    delim = " ",
    names = c("modality", "genre")
  )

masc_df

## # A tibble: 591,097 × 7
##    doc_id    term_num term         lemma        pos   modality genre
##    <chr>        <dbl> <chr>        <chr>        <chr> <chr>    <chr>
##  1 110CYL067        0 December     december     NNP   WR       LT   
##  2 110CYL067        1 1998         1998         CD    WR       LT   
##  3 110CYL067        2 Your         your         PRP$  WR       LT   
##  4 110CYL067        3 contribution contribution NN    WR       LT   
##  5 110CYL067        4 to           to           TO    WR       LT   
##  6 110CYL067        5 Goodwill     goodwill     NNP   WR       LT   
##  7 110CYL067        6 will         will         MD    WR       LT   
##  8 110CYL067        7 mean         mean         VB    WR       LT   
##  9 110CYL067        8 more         more         JJR   WR       LT   
## 10 110CYL067        9 than         than         IN    WR       LT   
## # ℹ 591,087 more rows
…
Since the doc_id variable is not informative, let's replace the variable's values with numeric values. In the end, we want a digit for each unique document and we want the words in each document to be grouped together.

To do this we will need to group the data by doc_id and then generate a new number for each group. We can achieve this by passing the data grouped by doc_id (group_by()) to the mutate() function and then using the cur_group_id() function to generate a number for each group.

# Recode doc_id
masc_df <-
  masc_df |>
  group_by(doc_id) |>
  mutate(doc_id = cur_group_id()) |>
  ungroup()

masc_df

## # A tibble: 591,097 × 7
##    doc_id term_num term         lemma        pos   modality genre
##     <int>    <dbl> <chr>        <chr>        <chr> <chr>    <chr>
##  1      1        0 December     december     NNP   WR       LT   
##  2      1        1 1998         1998         CD    WR       LT   
##  3      1        2 Your         your         PRP$  WR       LT   
##  4      1        3 contribution contribution NN    WR       LT   
##  5      1        4 to           to           TO    WR       LT   
##  6      1        5 Goodwill     goodwill     NNP   WR       LT   
##  7      1        6 will         will         MD    WR       LT   
##  8      1        7 mean         mean         VB    WR       LT   
##  9      1        8 more         more         JJR   WR       LT   
## 10      1        9 than         than         IN    WR       LT   
## # ℹ 591,087 more rows
…
After running this code a few times, we can see that the many of the values are as expected. There are, however, some unexpected values. In particular, some punctuation and symbols are tagged as nouns.

We can get a better appreciation for the unexpected values by filtering the data to only show non alpha-numeric values (^\\W+$) in the term column and then tabulating the values by term and pos.

# Filter and tabulate
masc_df |>
  filter(str_detect(term, "^\\W+$")) |>
  count(term, pos) |>
  arrange(-n) |>
  print(n = 20)

## # A tibble: 152 × 3
##    term  pos       n
##    <chr> <chr> <int>
##  1 ","   ,     27112
##  2 "."   .     26256
##  3 "\""  ''     5495
##  4 ":"   :      4938
##  5 "?"   .      3002
##  6 ")"   )      2447
##  7 "("   (      2363
##  8 "-"   :      1778
##  9 "!"   .      1747
## 10 "/"   NN     1494
## 11 "’"   NN     1319
## 12 "-"   -      1213
## 13 "”"   NN     1076
## 14 "“"   NN     1061
## 15 "]"   NN     1003
## 16 "["   NN     1001
## 17 ";"   :       991
## 18 "--"  :       772
## 19 ">"   NN      752
## 20 "..." ...     716
## # ℹ 132 more rows
…
# Check
masc_df |>
  filter(str_detect(term, "^\\W+$")) |> # preview
  count(term, pos) |>
  arrange(-n) |>
  print(n = 20)

## # A tibble: 127 × 3
##    term  pos       n
##    <chr> <chr> <int>
##  1 ","   ","   27113
##  2 "."   "."   26257
##  3 "\""  "\""   5502
##  4 ":"   ":"    4939
##  5 "?"   "?"    3002
##  6 "-"   "-"    2994
##  7 ")"   ")"    2447
##  8 "("   "("    2363
##  9 "!"   "!"    1747
## 10 "/"   "/"    1495
## 11 "’"   "’"    1325
## 12 "”"   "”"    1092
## 13 "“"   "“"    1078
## 14 "]"   "]"    1003
## 15 "["   "["    1001
## 16 ";"   ";"     993
## 17 "--"  "-"     772
## 18 ">"   ">"     753
## 19 "..." "."     747
## 20 "'"   "'"     741
## # ℹ 107 more rows
…
# Check
masc_df |>
  filter(str_detect(term, "^\\W+$")) |> # preview
  count(term, lemma) |>
  arrange(-n) |>
  print(n = 20)

## # A tibble: 127 × 3
##    term  lemma     n
##    <chr> <chr> <int>
##  1 ","   ","   27113
##  2 "."   "."   26257
##  3 "\""  "\""   5502
##  4 ":"   ":"    4939
##  5 "?"   "?"    3002
##  6 "-"   "-"    2994
##  7 ")"   ")"    2447
##  8 "("   "("    2363
##  9 "!"   "!"    1747
## 10 "/"   "/"    1495
## 11 "’"   "’"    1325
## 12 "”"   "”"    1092
## 13 "“"   "“"    1078
## 14 "]"   "]"    1003
## 15 "["   "["    1001
## 16 ";"   ";"     993
## 17 "--"  "-"     772
## 18 ">"   ">"     753
## 19 "..." "."     747
## 20 "'"   "'"     741
## # ℹ 107 more rows
…
We see that the values are SP and WR, which stand for spoken and written, respectively. To make this a bit more transparent, we can recode these values to Spoken and Written. We will use the case_when() function to do this.

# Recode modality
masc_df <-
  masc_df |>
  mutate(
    modality = case_when(
      modality == "SP" ~ "Spoken",
      modality == "WR" ~ "Written"
    )
  )

masc_df

## # A tibble: 591,097 × 7
##    doc_id term_num term         lemma        pos   modality genre
##     <int>    <dbl> <chr>        <chr>        <chr> <chr>    <chr>
##  1      1        0 December     december     NNP   Written  LT   
##  2      1        1 1998         1998         CD    Written  LT   
##  3      1        2 Your         your         PRP$  Written  LT   
##  4      1        3 contribution contribution NN    Written  LT   
##  5      1        4 to           to           TO    Written  LT   
##  6      1        5 Goodwill     goodwill     NNP   Written  LT   
##  7      1        6 will         will         MD    Written  LT   
##  8      1        7 mean         mean         VB    Written  LT   
##  9      1        8 more         more         JJR   Written  LT   
## 10      1        9 than         than         IN    Written  LT   
## # ℹ 591,087 more rows
…
masc_df

## # A tibble: 591,097 × 7
##    doc_id term_num term         lemma        pos   modality genre  
##     <int>    <dbl> <chr>        <chr>        <chr> <chr>    <chr>  
##  1      1        0 December     december     NNP   Written  Letters
##  2      1        1 1998         1998         CD    Written  Letters
##  3      1        2 Your         your         PRP$  Written  Letters
##  4      1        3 contribution contribution NN    Written  Letters
##  5      1        4 to           to           TO    Written  Letters
##  6      1        5 Goodwill     goodwill     NNP   Written  Letters
##  7      1        6 will         will         MD    Written  Letters
##  8      1        7 mean         mean         VB    Written  Letters
##  9      1        8 more         more         JJR   Written  Letters
## 10      1        9 than         than         IN    Written  Letters
## # ℹ 591,087 more rows
…
## # A tibble: 2 × 2
##   modality     n
##   <chr>    <int>
## 1 Written    371
## 2 Spoken      21

# How many documents are in each genre?
masc_df |>
  distinct(doc_id, genre) |>
  count(genre) |>
  arrange(-n)

## # A tibble: 18 × 2
##    genre            n
##    <chr>        <int>
##  1 Email          174
##  2 Newspaper       54
##  3 Letters         49
##  4 Blog            21
##  5 Jokes           16
##  6 Journal         12
##  7 Essay            8
##  8 Fiction          7
##  9 Travel guide     7
## 10 Face-to-face     6
## # ℹ 8 more rows
…
