5. Collecting and documenting data • qtalrkit
…
The next step is to subset the gutenberg_metadata data frame to select works from the authors and subjects selected in the previous steps. Again, we will use filter() to do this. We will pass the gutenberg_metadata data frame to the filter() function and then use the gutenberg_author_id and gutenberg_id columns to select the works that are associated with the authors and subjects selected in the previous steps. We will then assign the result to the variable name works.

works <-
  gutenberg_metadata |>
  filter(
    gutenberg_author_id %in% authors$gutenberg_author_id,
    gutenberg_id %in% subjects$gutenberg_id
  )

works

## # A tibble: 1,014 × 8
##    gutenberg_id title    author gutenberg_author_id language gutenberg_bookshelf
##           <int> <chr>    <chr>                <int> <chr>    <chr>              
##  1           33 The Sca… Hawth…                  28 en       "Harvard Classics/…
##  2           46 A Chris… Dicke…                  37 en       "Children's Litera…
##  3           71 On the … Thore…                  54 en       ""                 
##  4           77 The Hou… Hawth…                  28 en       "Best Books Ever L…
##  5           98 A Tale … Dicke…                  37 en       "Historical Fictio…
##  6          205 Walden,… Thore…                  54 en       ""                 
##  7          258 Poems b… Gordo…                 145 en       ""                 
##  8          271 Black B… Sewel…                 154 en       "Best Books Ever L…
##  9          292 Beauty … Taylo…                 167 en       ""                 
## 10          394 Cranford Gaske…                 220 en       ""                 
## # ℹ 1,004 more rows
## # ℹ 2 more variables: rights <chr>, has_text <lgl>
…
works_sample <-
  works |>
  filter(
    rights == "Public domain in the USA.",
    has_text == TRUE
  ) |>
  slice_head(n = 5) |>
  gutenberg_download(
    meta_fields = c("title", "author", "gutenberg_author_id", "gutenberg_bookshelf")
  )

works_sample

## # A tibble: 38,227 × 6
##    gutenberg_id text        title author gutenberg_author_id gutenberg_bookshelf
##           <int> <chr>       <chr> <chr>                <int> <chr>              
##  1           33 "The Scarl… The … Hawth…                  28 Harvard Classics/M…
##  2           33 ""          The … Hawth…                  28 Harvard Classics/M…
##  3           33 "by Nathan… The … Hawth…                  28 Harvard Classics/M…
##  4           33 ""          The … Hawth…                  28 Harvard Classics/M…
##  5           33 ""          The … Hawth…                  28 Harvard Classics/M…
##  6           33 "Contents"  The … Hawth…                  28 Harvard Classics/M…
##  7           33 ""          The … Hawth…                  28 Harvard Classics/M…
##  8           33 " THE CUST… The … Hawth…                  28 Harvard Classics/M…
##  9           33 " THE SCAR… The … Hawth…                  28 Harvard Classics/M…
## 10           33 " I. THE P… The … Hawth…                  28 Harvard Classics/M…
## # ℹ 38,217 more rows
…
